participant,,VRt11,VRt12,VRt13,VRt14,,VRt21,VRt22,VRt23,VRt24,,VRt31,VRt32,VRt33,VRt34,,VRt41,VRt42,VRt43,VRt44,,VRt51,VRt52,VRt53,VRt54,,REALt11,REALt12,REALt13,REALt14,,REALt21,REALt22,REALt23,REALt24,,REALt31,REALt32,REALt33,REALt34,,REALt41,REALt42,REALt43,REALt44,,REALt51,REALt52,REALt53,REALt54
P01,,5,5,5,5,,4,5,5,5,,3,3,5,5,,4,5,5,5,,6,5,6,6,,3,2,2,2,,1,2,2,1,,1,2,2,2,,2,2,2,2,,2,2,2,2
P02,,1,1,2,6,,5,5,5,3,,1,2,2,4,,5,5,3,5,,2,2,3,5,,1,1,1,1,,1,1,1,1,,1,1,1,1,,3,1,1,1,,1,1,1,1
P03,,3,6,6,7,,3,4,2,4,,3,2,2,2,,5,5,2,3,,2,3,2,5,,2,1,2,6,,6,2,3,4,,2,5,2,6,,3,6,7,5,,5,5,5,5
P04,,6,4,3,3,,3,3,2,3,,2,6,3,2,,,3,6,2,,5,3,5,6,,2,3,3,3,,3,3,5,4,,5,5,3,2,,2,1,4,2,,2,1,1,4
P05,,5,6,,4,,4,3,5,5,,6,6,5,5,,5,6,5,6,,5,5,2,5,,6,2,2,2,,1,2,2,2,,1,2,2,2,,2,2,2,2,,2,2,2,2
P06,,2,1,6,4,,2,2,1,1,,1,3,2,1,,2,3,1,4,,1,3,3,2,,2,5,5,5,,1,4,5,4,,2,1,1,2,,1,1,2,1,,2,1,2,1
P07,,1,2,,4,,2,2,6,5,,4,5,5,6,,5,5,6,6,,5,6,5,7,,2,2,3,4,,5,2,2,3,,3,3,2,3,,3,3,4,3,,3,3,3,2
P08,,5,6,5,4,,6,5,4,4,,4,3,2,3,,5,3,2,2,,2,1,2,,,1,1,2,1,,1,1,1,1,,2,2,3,1,,2,1,1,2,,1,1,2,1
P09,,7,4,5,4,,4,5,4,4,,4,4,4,5,,5,4,4,5,,5,6,4,6,,5,5,6,4,,5,6,4,4,,5,4,4,6,,4,3,5,4,,4,6,5,6
P10,,4,2,3,5,,3,4,5,4,,4,4,4,4,,3,4,3,4,,3,3,3,3,,2,2,2,2,,2,2,4,4,,2,2,4,2,,3,4,5,5,,3,4,5,6
P11,,3,2,2,2,,2,1,2,1,,1,1,3,6,,2,3,5,2,,1,2,1,5,,3,3,6,3,,2,1,5,2,,2,2,2,2,,5,2,3,5,,2,2,2,5
P12,,4,4,4,5,,4,3,3,5,,5,3,3,3,,4,3,3,3,,3,3,3,4,,2,2,2,2,,2,2,2,2,,2,2,2,2,,2,2,2,2,,2,2,2,2
P13,,1,1,1,1,,3,4,1,2,,2,1,2,1,,1,2,1,1,,1,1,1,2,,,1,1,1,,2,1,1,1,,1,1,1,1,,1,1,1,1,,1,1,1,1
P14,,3,3,2,4,,1,5,5,5,,4,5,4,5,,5,5,6,6,,4,5,5,5,,2,2,1,1,,1,1,1,1,,1,1,1,1,,1,2,6,6,,1,1,3,1
P15,,3,3,5,5,,3,2,2,2,,2,2,2,2,,2,2,1,2,,2,2,2,2,,5,3,2,2,,1,2,2,2,,3,3,2,2,,4,2,2,2,,4,3,3,4
P16,,1,2,2,5,,5,2,3,3,,3,4,4,3,,2,2,2,2,,2,2,2,2,,2,2,2,2,,2,2,2,2,,2,2,2,2,,1,1,2,2,,2,2,3,2
