participant,,VRt11,VRt12,VRt13,VRt14,,VRt21,VRt22,VRt23,VRt24,,VRt31,VRt32,VRt33,VRt34,,VRt41,VRt42,VRt43,VRt44,,VRt51,VRt52,VRt53,VRt54,,REALt11,REALt12,REALt13,REALt14,,REALt21,REALt22,REALt23,REALt24,,REALt31,REALt32,REALt33,REALt34,,REALt41,REALt42,REALt43,REALt44,,REALt51,REALt52,REALt53,REALt54
P01,,85,90,87.5,80,,85,85,82.5,82.5,,82.5,80,82.5,80,,82.5,85,82.5,85,,82.5,82.5,85,82.5,,85,85,85,85,,85,85,87.5,87.5,,87.5,87.5,85,85,,85,85,85,85,,85,85,85,85
P02,,55,57.5,50,55,,57.5,60,57.5,55,,60,60,60,57.5,,57.5,52.5,60,57.5,,52.5,57.5,57.5,57.5,,42.5,62.5,62.5,70,,70,70,65,70,,55,57.5,60,60,,55,60,55,52.5,,65,60,60,57.5
P03,,72.5,57.5,60,55,,60,57.5,52.5,57.5,,55,60,62.5,62.5,,52.5,57.5,57.5,57.5,,57.5,57.5,57.5,57.5,,77.5,77.5,70,70,,65,70,72.5,75,,65,65,62.5,60,,70,75,75,70,,70,60,65,67.5
P04,,37.5,45,47.5,55,,57.5,47.5,47.5,50,,50,47.5,62.5,57.5,,70,70,62.5,60,,70,65,72.5,65,,,97.5,95,100,,97.5,100,100,95,,87.5,100,100,100,,87.5,90,90,100,,80,97.5,100,100
P05,,55,52.5,52.5,50,,45,55,55,55,,55,55,55,55,,55,55,55,55,,55,55,55,55,,70,75,75,75,,75,75,75,75,,75,75,75,75,,75,75,75,75,,75,75,75,75
P06,,70,72.5,70,80,,77.5,85,80,87.5,,87.5,90,82.5,77.5,,80,82.5,72.5,80,,80,85,75,75,,87.5,90,85,95,,92.5,100,100,95,,95,97.5,92.5,87.5,,92.5,90,97.5,95,,87.5,95,97.5,97.5
P07,,45,35,37.5,30,,27.5,37.5,27.5,27.5,,32.5,32.5,30,30,,27.5,27.5,30,32.5,,30,30,30,,,52.5,65,65,57.5,,60,55,55,57.5,,47.5,62.5,57.5,55,,55,57.5,55,50,,55,60,57.5,62.5
P08,,47.5,42.5,55,57.5,,47.5,52.5,55,60,,55,60,62.5,52.5,,65,62.5,55,57.5,,60,55,60,57.5,,75,85,90,85,,87.5,75,85,85,,90,87.5,85,82.5,,85,90,87.5,82.5,,90,80,87.5,87.5
P09,,42.5,45,,52.5,,50,42.5,45,40,,42.5,42.5,35,37.5,,37.5,37.5,37.5,40,,45,37.5,40,55,,60,60,60,65,,65,65,55,62.5,,60,62.5,60,62.5,,57.5,60,62.5,65,,50,57.5,60,60
P10,,50,47.5,52.5,55,,55,52.5,50,57.5,,57.5,37.5,57.5,55,,,50,65,52.5,,57.5,50,45,55,,55,60,57.5,62.5,,67.5,62.5,55,57.5,,57.5,70,55,67.5,,67.5,80,70,60,,80,67.5,75,62.5
P11,,25,25,25,12.5,,45,32.5,37.5,32.5,,30,32.5,30,30,,25,30,20,32.5,,35,35,37.5,35,,50,40,42.5,35,,35,27.5,40,40,,32.5,35,32.5,32.5,,32.5,40,35,42.5,,35,30,37.5,32.5
P12,,50,60,57.5,55,,55,57.5,55,57.5,,60,55,57.5,55,,55,52.5,55,50,,40,50,47.5,52.5,,55,45,45,47.5,,45,47.5,42.5,45,,45,47.5,52.5,45,,47.5,45,45,45,,45,45,50,45
P13,,70,67.5,70,75,,80,97.5,97.5,90,,97.5,97.5,97.5,100,,90,90,100,100,,100,100,100,100,,90,90,100,100,,80,100,100,90,,90,100,100,100,,100,100,97.5,100,,100,100,100,100
P14,,47.5,42.5,,52.5,,47.5,52.5,47.5,50,,47.5,45,45,50,,50,50,50,52.5,,47.5,50,57.5,62.5,,85,87.5,90,82.5,,85,85,82.5,82.5,,82.5,82.5,85,77.5,,87.5,82.5,82.5,82.5,,72.5,85,82.5,82.5
P15,,62.5,45,42.5,25,,30,30,27.5,40,,50,37.5,32.5,25,,32.5,35,35,20,,17.5,35,27.5,32.5,,87.5,97.5,95,85,,97.5,97.5,97.5,100,,85,87.5,92.5,92.5,,92.5,87.5,100,100,,85,92.5,92.5,87.5
P16,,55,55,47.5,50,,47.5,42.5,42.5,42.5,,45,37.5,37.5,35,,35,37.5,37.5,37.5,,42.5,40,35,37.5,,80,90,87.5,92.5,,87.5,87.5,82.5,82.5,,82.5,85,82.5,77.5,,75,77.5,80,72.5,,77.5,77.5,75,77.5
