participant,VRt11,VRt12,VRt13,VRt14,,VRt21,VRt22,VRt23,VRt24,,VRt31,VRt32,VRt33,VRt34,,VRt41,VRt42,VRt43,VRt44,,VRt51,VRt52,VRt53,VRt54,,REALt11,REALt12,REALt13,REALt14,,REALt21,REALt22,REALt23,REALt24,,REALt31,REALt32,REALt33,REALt34,,REALt41,REALt42,REALt43,REALt44,,REALt51,REALt52,REALt53,REALt54
P01,40.83333333,37.5,40.83333333,44.16666667,,23.33333333,20,26.66666667,21.66666667,,22.5,30,20,19.16666667,,12.5,10.83333333,15,10,,10,11.66666667,10.83333333,10,,15,11.66666667,10,10.83333333,,10.83333333,10,10,10,,10,10,11.66666667,13.33333333,,9.166666667,9.166666667,10,10.83333333,,10,11.66666667,16.66666667,13.33333333
P02,29.16666667,28.33333333,31.66666667,30,,29.16666667,24.16666667,25.83333333,21.66666667,,25.83333333,31.66666667,25.83333333,32.5,,25,28.33333333,27.5,28.33333333,,24.16666667,25,25,29.16666667,,27.5,24.16666667,25,21.66666667,,23.33333333,25.83333333,24.16666667,26.66666667,,26.66666667,26.66666667,22.5,25,,25.83333333,27.5,24.16666667,17.5,,25,25.83333333,25.83333333,26.66666667
P03,44.16666667,46.66666667,53.33333333,54.16666667,,45.83333333,50,52.5,60.83333333,,61.66666667,55.83333333,54.16666667,54.16666667,,51.66666667,55,61.66666667,57.5,,51.66666667,57.5,54.16666667,52.5,,28.33333333,49.16666667,49.16666667,45.83333333,,50,45.83333333,47.5,50,,47.5,47.5,64.16666667,46.66666667,,46.66666667,49.16666667,,71.66666667,,48.33333333,50,50.83333333,44.16666667
P04,57.5,71.66666667,65.83333333,60.83333333,,53.33333333,55.83333333,52.5,63.33333333,,66.66666667,57.5,47.5,57.5,,50,47.5,52.5,50,,49.16666667,45.83333333,50.83333333,50,,34.16666667,35,20,30.83333333,,30,21.66666667,30,28.33333333,,21.66666667,18.33333333,13.33333333,18.33333333,,22.5,18.33333333,20.83333333,29.16666667,,28.33333333,20,26.66666667,23.33333333
P05,30.83333333,36.66666667,34.16666667,35,,35,29.16666667,31.66666667,33.33333333,,33.33333333,36.66666667,26.66666667,35.83333333,,31.66666667,45.83333333,31.66666667,30.83333333,,35.83333333,33.33333333,39.16666667,40,,28.33333333,29.16666667,30.83333333,30,,35,31.66666667,25.83333333,29.16666667,,28.33333333,27.5,23.33333333,24.16666667,,31.66666667,30.83333333,30.83333333,32.5,,29.16666667,28.33333333,25.83333333,27.5
P06,54.16666667,45,50,50,,40,35,31.66666667,29.16666667,,30.83333333,34.16666667,32.5,63.33333333,,22.5,40,47.5,42.5,,34.16666667,33.33333333,40,52.5,,46.66666667,42.5,40.83333333,34.16666667,,38.33333333,44.16666667,49.16666667,46.66666667,,45.83333333,40,43.33333333,42.5,,42.5,40.83333333,50.83333333,53.33333333,,50,45,52.5,50.83333333
P07,41.66666667,50.83333333,58.33333333,50.83333333,,63.33333333,72.5,65,64.16666667,,50.83333333,45,41.66666667,41.66666667,,50.83333333,45.83333333,41.66666667,34.16666667,,36.66666667,35,30.83333333,,,,35,37.5,34.16666667,,35,28.33333333,30.83333333,30.83333333,,28.33333333,32.5,44.16666667,35.83333333,,36.66666667,36.66666667,41.66666667,43.33333333,,33.33333333,26.66666667,40,46.66666667
P08,72.5,65,65,56.66666667,,57.5,56.66666667,58.33333333,52.5,,55,55.83333333,54.16666667,54.16666667,,55,65,60.83333333,56.66666667,,52.5,45.83333333,55,50.83333333,,65.83333333,65,60.83333333,63.33333333,,58.33333333,50,49.16666667,46.66666667,,42.5,44.16666667,45,41.66666667,,55,45.83333333,55.83333333,48.33333333,,42.5,44.16666667,43.33333333,55.83333333
P09,,30,32.5,27.5,,29.16666667,35.83333333,35.83333333,34.16666667,,34.16666667,33.33333333,39.16666667,40,,49.16666667,49.16666667,45.83333333,48.33333333,,43.33333333,57.5,49.16666667,85,,34.16666667,26.66666667,20,19.16666667,,16.66666667,15,22.5,41.66666667,,21.66666667,20,19.16666667,23.33333333,,24.16666667,27.5,34.16666667,34.16666667,,23.33333333,27.5,36.66666667,47.5
P10,52.5,58.33333333,50,40,,36.66666667,38.33333333,34.16666667,38.33333333,,43.33333333,56.66666667,41.66666667,43.33333333,,,44.16666667,51.66666667,48.33333333,,43.33333333,52.5,46.66666667,45,,38.33333333,37.5,42.5,46.66666667,,44.16666667,44.16666667,54.16666667,42.5,,50,40.83333333,44.16666667,50.83333333,,42.5,45.83333333,45.83333333,45.83333333,,39.16666667,50.83333333,44.16666667,50.83333333
P11,65,58.33333333,60,59.16666667,,47.5,59.16666667,57.5,55.83333333,,46.66666667,57.5,49.16666667,53.33333333,,70.83333333,65.83333333,67.5,60,,53.33333333,52.5,35,38.33333333,,,,61.66666667,75.83333333,,84.16666667,85,55,65.83333333,,55.83333333,55,74.16666667,75,,58.33333333,68.33333333,64.16666667,63.33333333,,68.33333333,70,66.66666667,65
P12,68.33333333,58.33333333,58.33333333,59.16666667,,63.33333333,57.5,62.5,56.66666667,,55.83333333,58.33333333,51.66666667,60,,51.66666667,66.66666667,51.66666667,65.83333333,,64.16666667,66.66666667,65.83333333,59.16666667,,45,43.33333333,42.5,48.33333333,,50,50,53.33333333,44.16666667,,50,55,50.83333333,61.66666667,,51.66666667,53.33333333,46.66666667,50,,49.16666667,51.66666667,52.5,53.33333333
P13,41.66666667,51.66666667,55.83333333,42.5,,41.66666667,39.16666667,31.66666667,30.83333333,,20.83333333,25,25.83333333,21.66666667,,30.83333333,24.16666667,15,51.66666667,,23.33333333,20.83333333,34.16666667,37.5,,44.16666667,50,45,42.5,,37.5,41.66666667,46.66666667,46.66666667,,40,29.16666667,40,35,,27.5,30.83333333,30.83333333,33.33333333,,32.5,36.66666667,35.83333333,30.83333333
P14,73.33333333,88.33333333,,85.83333333,,84.16666667,89.16666667,87.5,88.33333333,,85,88.33333333,85,85.83333333,,78.33333333,89.16666667,90.83333333,90,,91.66666667,91.66666667,88.33333333,91.66666667,,42.5,36.66666667,36.66666667,34.16666667,,36.66666667,36.66666667,30.83333333,30,,28.33333333,27.5,33.33333333,29.16666667,,30.83333333,37.5,33.33333333,30.83333333,,35.83333333,32.5,34.16666667,32.5
P15,46.66666667,50.83333333,65,70,,53.33333333,60.83333333,60,50,,40.83333333,45,47.5,66.66666667,,52.5,65.83333333,54.16666667,62.5,,58.33333333,49.16666667,50,65,,33.33333333,34.16666667,30,27.5,,45,43.33333333,36.66666667,40.83333333,,19.16666667,43.33333333,50.83333333,45.83333333,,35.83333333,33.33333333,32.5,19.16666667,,41.66666667,35,50,45
P16,38.33333333,39.16666667,42.5,42.5,,38.33333333,36.66666667,36.66666667,35,,32.5,30,35,35,,35.83333333,31.66666667,36.66666667,36.66666667,,35,35.83333333,32.5,40,,20,15.83333333,19.16666667,18.33333333,,14.16666667,13.33333333,15,13.33333333,,15.83333333,14.16666667,15,13.33333333,,13.33333333,13.33333333,13.33333333,13.33333333,,15.83333333,15,20,17.5
