participant,,VRt10,VRt11,VRt12,VRt13,VRt14,,VRt20,VRt21,VRt22,VRt23,VRt24,,VRt30,VRt31,VRt32,VRt33,VRt34,,VRt40,VRt41,VRt42,VRt43,VRt44,,VRt50,VRt51,VRt52,VRt53,VRt54,,REALt10,REALt11,REALt12,REALt13,REALt14,,REALt20,REALt21,REALt22,REALt23,REALt24,,REALt30,REALt31,REALt32,REALt33,REALt34,,REALt40,REALt41,REALt42,REALt43,REALt44,,REALt50,REALt51,REALt52,REALt53,REALt54
P01,,1.166666667,1.166666667,1.666666667,1.333333333,1.5,,1,1,1,1,1.166666667,,1,1,1,1,1,,1,1,1,1,1,,1,1,1,1,1,,1,1,1,1,1.166666667,,1,1,1,1,1,,1,1,1,1.166666667,1.166666667,,1,1,1,1,1,,1,1,1,1.5,1.333333333
P02,,1,1,1,1,1,,1,1,1,1,1,,1,1,1,1,1,,1,1,1,1,1,,1,1,1,1,1,,1,1,1,1,1,,1,1,1,1,1,,1,1,1,1,1,,1.333333333,1,1,1,1,,1.166666667,1,1.166666667,1,1
P03,,1,2,1.333333333,1.833333333,1.666666667,,1,1.333333333,1.333333333,1.333333333,1.333333333,,1,1.333333333,1.333333333,1.333333333,1.166666667,,1,1.166666667,1.333333333,1.333333333,1.333333333,,1,1.333333333,1,1.333333333,1.166666667,,1,1,1,1,1,,1,1,1,1,1,,1,1,1,1,1,,1,1,1,1,1,,1,1,1,1,1
P04,,1.166666667,1.166666667,1.166666667,1.333333333,1.166666667,,1,1,1,1,1,,1,1.333333333,1.333333333,1.166666667,1.333333333,,1,1,1,1,1.166666667,,1,1,1.166666667,1.333333333,1.5,,1,1,1,1,1,,1,1,1.5,1,1.333333333,,1,1,1,1,1,,1,1,1,1,1,,1,1,1.166666667,1,1.166666667
P05,,1,1,1,1,1,,1,1,1,1,1.166666667,,1,1,1.166666667,1,1.166666667,,1,1,1.333333333,1.166666667,1.166666667,,1,1.166666667,1.166666667,1.166666667,1.333333333,,1,1.166666667,1.166666667,1.166666667,1.166666667,,1,1,1,1,1,,1,1,1,1,1,,1,1,1.166666667,1,1,,1,1,1,1,1
P06,,2.166666667,2.333333333,1.333333333,1.166666667,1.5,,1,1.166666667,1.166666667,1,1,,1,1,1,1,1,,1.5,1,1,1,1,,1,1,1,1,1,,1.333333333,1,1,1,1,,1,1,1,1,1.333333333,,1,1.166666667,1.333333333,1,1,,1,1,1,1,1,,1,1,1,1,1
P07,,2,1.666666667,2.666666667,2.333333333,2.666666667,,1.5,2.333333333,2.166666667,2.333333333,1.833333333,,1.5,1.833333333,1.833333333,2,1.833333333,,1.666666667,1.833333333,1.5,2.5,1.666666667,,1.5,1.333333333,1.666666667,1.666666667,,,1.166666667,1,1,1.333333333,1.666666667,,1,1,1,1.333333333,1.333333333,,1,1.166666667,1,1.333333333,1.5,,1,1.166666667,1,1.5,1.5,,1,1,1,1.333333333,1.333333333
P08,,2.5,3.5,3,3.166666667,2.666666667,,1.666666667,1.833333333,2.166666667,2,1.833333333,,1.166666667,1.833333333,1.666666667,1.333333333,1.666666667,,1.333333333,1.333333333,1.666666667,1.833333333,1.666666667,,1.333333333,2.333333333,2,1.833333333,1.666666667,,1.166666667,1.333333333,1.166666667,1.166666667,1,,1.166666667,1.166666667,1.166666667,1.166666667,1.166666667,,1,1,1,1.333333333,1.166666667,,1,1,1.166666667,1.166666667,1.166666667,,1,1,1,1,1.333333333
P09,,1.333333333,2,1.833333333,,1.833333333,,1.333333333,1.666666667,1.833333333,1.833333333,2.333333333,,1.333333333,1.666666667,1.666666667,2,2.666666667,,1.166666667,1.666666667,1.666666667,2.333333333,2.333333333,,1.333333333,1.5,2,2.166666667,3.166666667,,1.333333333,1.166666667,1.166666667,1,1,,1,1,1,1,1,,1,1,1,1,1,,1,1,1,1,1,,1,1,1,1.5,1.833333333
P10,,4,3.5,3.166666667,2.666666667,2,,1.166666667,2.5,1.833333333,1.833333333,1.833333333,,1,1.333333333,2,1,1,,1,,1.166666667,1.166666667,1,,1.333333333,1,2.333333333,1.833333333,2.333333333,,1,1.333333333,1.333333333,1,1.166666667,,1,1.5,1.166666667,1,1,,1,1,1,1,1,,1,1,1,1,1,,1,1,1,1,1
P11,,1.166666667,1.5,2,2,3.166666667,,1,1.166666667,1.5,1.5,1.5,,1,1.333333333,1.5,1.5,1.333333333,,1,1.833333333,2,2.333333333,1.833333333,,1.333333333,1.5,2,1.5,1.666666667,,1,3,2.333333333,1.666666667,1.833333333,,1,1,1.833333333,1.5,1.833333333,,1.666666667,1,1.5,1.666666667,2.166666667,,1.166666667,1,1.5,1.833333333,1.666666667,,1.666666667,1.333333333,1.5,1.5,1.666666667
P12,,2.166666667,2.833333333,3,2.333333333,2.833333333,,1.166666667,2.166666667,2.333333333,2.166666667,2.666666667,,1.166666667,1.833333333,1.666666667,1.666666667,2,,1.166666667,1.666666667,2.5,1.666666667,2,,1.333333333,2.333333333,2.5,2.333333333,2.833333333,,1.166666667,1,1,1,1,,1,1,1,1,1,,1.166666667,1,1,1.166666667,1.333333333,,1,1,1.166666667,1,1.166666667,,1.166666667,1,1.166666667,1,1.666666667
P13,,1.666666667,2,2,2.333333333,2.333333333,,1.666666667,1.833333333,1.5,1,1,,1.333333333,1.5,1.166666667,1.333333333,1,,1.5,1.5,1.333333333,1.166666667,1.5,,1,1,1.166666667,1.333333333,1.333333333,,1,1,1.166666667,1.666666667,1.333333333,,1.166666667,1,1.166666667,1.333333333,1.333333333,,1.166666667,1,1.166666667,1,1,,1,1,1,1,1,,1.333333333,1,1,1,1
P14,,2.833333333,3,2.166666667,,2.833333333,,2.166666667,2.333333333,2.166666667,2.5,2.333333333,,2.166666667,2.166666667,2.5,2,2.5,,1.833333333,1.666666667,2.5,2.333333333,2.5,,2.333333333,2.5,2.333333333,2.166666667,2.333333333,,1,1,1,1,1,,1,1,1,1,1,,1,1,1,1,1,,1,1,1,1,1,,1,1,1,1,1
P15,,1.666666667,1.666666667,1.5,2,3,,1.5,2.5,2.666666667,3.166666667,2.666666667,,1.333333333,1.333333333,1.666666667,2.333333333,3,,1.666666667,2.5,3.333333333,3.166666667,3.333333333,,2.166666667,2.333333333,3.333333333,2.833333333,2.5,,1,1,1,1,1,,1,1,1,1,1,,1,1,1,1,1,,1,1,1,1,1,,1,1,1,1,1
P16,,1.5,2,1.5,1.5,1.666666667,,1.333333333,1.5,1.5,1.5,1.5,,1.333333333,1.333333333,1.5,1.833333333,1.833333333,,1.333333333,1.5,1.833333333,1.833333333,2,,1.5,1.833333333,2,2.166666667,2,,1.166666667,1,1,1,1,,1.166666667,1,1,1,1.333333333,,1,1,1,1,1.166666667,,1,1,1,1,1,,1,1,1,1,1
